…
getting the information of *cBioPortal* *API* :

a list of all api datasets of studies that are available and currently
building as *MultiAssayExperiment* representations.

```{r}
cbio <- cBioPortal()
```

```         
service: cBioPortal
tags(); use cbioportal$<tab completion>:
# A tibble: 65 x 3
   tag                 operation                            summary
   <chr>               <chr>                                <chr>  
 1 Cancer Types        getAllCancerTypesUsingGET            Get al~
 2 Cancer Types        getCancerTypeUsingGET                Get a ~
 3 Clinical Attributes fetchClinicalAttributesUsingPOST     Fetch ~
 4 Clinical Attributes getAllClinicalAttributesInStudyUsin~ Get al~
 5 Clinical Attributes getAllClinicalAttributesUsingGET     Get al~
 6 Clinical Attributes getClinicalAttributeInStudyUsingGET  Get sp~
 7 Clinical Data       fetchAllClinicalDataInStudyUsingPOST Fetch ~
 8 Clinical Data       fetchClinicalDataUsingPOST           Fetch ~
 9 Clinical Data       getAllClinicalDataInStudyUsingGET    Get al~
10 Clinical Data       getAllClinicalDataOfPatientInStudyU~ Get al~
# i 55 more rows
# i Use `print(n = ...)` to see more rows
…
